Introducción a R
…
# Escriba el código que utilice la funcion seq y cree un vector de valores del 1 hasta el 10 (1 línea de código)
vector <- seq(1,10)
# --------------------------- #
vector

##  [1]  1  2  3  4  5  6  7  8  9 10

Exploración de datos

Vamos a utilizar un conjunto de datos ( dataset ) de los vuelos realiados en la ciudad de Nueva York en 2013. Vamos a ejecutar el siguiente código que nos permitirá ver nuestro data.frame

# La siguiente línea de código especifica que vamos a utilizar "flights" del paquete nycflights13, esto se realiza con la finalidad que no se presenten problemas si hay más variables "flights" en nuestro entorno de trabajo.
nycflights13::flights

## # A tibble: 336,776 x 19
##     year month   day dep_time sched_dep_time dep_delay arr_time
##    <int> <int> <int>    <int>          <int>     <dbl>    <int>
##  1  2013     1     1      517            515         2      830
##  2  2013     1     1      533            529         4      850
##  3  2013     1     1      542            540         2      923
##  4  2013     1     1      544            545        -1     1004
##  5  2013     1     1      554            600        -6      812
##  6  2013     1     1      554            558        -4      740
##  7  2013     1     1      555            600        -5      913
##  8  2013     1     1      557            600        -3      709
##  9  2013     1     1      557            600        -3      838
## 10  2013     1     1      558            600        -2      753
## # ... with 336,766 more rows, and 12 more variables: sched_arr_time <int>,
## #   arr_delay <dbl>, carrier <chr>, flight <int>, tailnum <chr>,
## #   origin <chr>, dest <chr>, air_time <dbl>, distance <dbl>, hour <dbl>,
## #   minute <dbl>, time_hour <dttm>

flights

## # A tibble: 336,776 x 19
##     year month   day dep_time sched_dep_time dep_delay arr_time
##    <int> <int> <int>    <int>          <int>     <dbl>    <int>
##  1  2013     1     1      517            515         2      830
##  2  2013     1     1      533            529         4      850
##  3  2013     1     1      542            540         2      923
##  4  2013     1     1      544            545        -1     1004
##  5  2013     1     1      554            600        -6      812
##  6  2013     1     1      554            558        -4      740
##  7  2013     1     1      555            600        -5      913
##  8  2013     1     1      557            600        -3      709
##  9  2013     1     1      557            600        -3      838
## 10  2013     1     1      558            600        -2      753
## # ... with 336,766 more rows, and 12 more variables: sched_arr_time <int>,
## #   arr_delay <dbl>, carrier <chr>, flight <int>, tailnum <chr>,
## #   origin <chr>, dest <chr>, air_time <dbl>, distance <dbl>, hour <dbl>,
## #   minute <dbl>, time_hour <dttm>
…
Nosotros podemos realizar varias operaciones lógicas enlazadas entre sí, por ejemplo:

filter(flights,  carrier == "B6" & distance <= 1500)

La anterior línea de código nos da los vuelos realizados en el año 2014 y que tuvieron una distancia hasta 1500 millas.

Ahora, le proponemos como ejercicio obtener el subconjunto de datos de los vuelos de la aerolinea “AA” que tuvieron una distancia entre 1300 y 1800 millas.

Ejercicio 8

# Escriba en el siguiente espacio el filtro que permita obtener el subconjunto de vuelos (1 línea de código)
filter(flights, carrier== "AA" & (distance >= 1300 || distance <= 1800))

## # A tibble: 32,729 x 19
##     year month   day dep_time sched_dep_time dep_delay arr_time
##    <int> <int> <int>    <int>          <int>     <dbl>    <int>
##  1  2013     1     1      542            540         2      923
##  2  2013     1     1      558            600        -2      753
##  3  2013     1     1      559            600        -1      941
##  4  2013     1     1      606            610        -4      858
##  5  2013     1     1      623            610        13      920
##  6  2013     1     1      628            630        -2     1137
##  7  2013     1     1      629            630        -1      824
##  8  2013     1     1      635            635         0     1028
##  9  2013     1     1      656            700        -4      854
## 10  2013     1     1      656            659        -3      949
## # ... with 32,719 more rows, and 12 more variables: sched_arr_time <int>,
## #   arr_delay <dbl>, carrier <chr>, flight <int>, tailnum <chr>,
## #   origin <chr>, dest <chr>, air_time <dbl>, distance <dbl>, hour <dbl>,
## #   minute <dbl>, time_hour <dttm>
…
